{
	"message": "C\u00c1C B\u1ea0N TH\u00c0NH VI\u00caN TRONG GROUP M\u00c0 CH\u01afA BI\u1ebeT THAM GIA H\u1eccC TH\u1ebe N\u00c0O! \u0110\u1ec2 L\u1ea0I 1 CH\u1ea4M D\u01af\u1edaI B\u00c0I N\u00c0Y C\u00c1C QTV H\u1ed6 TR\u1ee2 NH\u00c9! HO\u1eb6C B\u1ea0N C\u00d3 C\u00c2U H\u1eceI G\u00cc TH\u00cc \u0110\u1eb6T \u1ede B\u00c0I N\u00c0Y NH\u00c9!\nB\u01b0\u1edbc 1: c\u00e1c b\u1ea1n down b\u1ea3n H\u01b0\u1edbng d\u1eabn h\u1ecdc tr\u00ean CEC n\u00e0y v\u1ec1. N\u00f3 ch\u1ee9a to\u00e0n b\u1ed9 h\u01b0\u1edbng d\u1eabn c\u00e1c ho\u1ea1t \u0111\u1ed9ng h\u1ecdc tr\u00ean CEC : https://drive.google.com/file/d/1WyTa3suUvKcaIrZv1SJ0HX2jq9ooBV4Q/view\nB\u01b0\u1edbc 2: B\u1eaft \u0111\u1ea7u tham gia c\u00e1c ho\u1ea1t \u0111\u1ed9ng h\u1ecdc tr\u00ean c\u1ed9ng \u0111\u1ed3ng!\nLink \u0110\u0103ng K\u00ed nh\u1eadn c\u00e1c b\u00e0i h\u1ecdc c\u1ee7a CEC. C\u00e1c b\u1ea1n nh\u1edb l\u00e0 ph\u1ea3i h\u1ecdc t\u1eebng b\u00e0i m\u1ed9t th\u00ec m\u1edbi \u0111\u01b0\u1ee3c g\u1eedi b\u00e0i ti\u1ebfp theo nh\u00e9!\nLINK \u0110K LESSON 1: https://goo.gl/forms/nSVFp0NgmJO5lqbC2\nLINK \u0110K LESSON 2: https://goo.gl/jxWEJf\nLINK \u0110K LESSON 3: https://goo.gl/forms/ulpzex50dcy2bl5Z2.\nLINK \u0110K B\u00c0I H\u1eccC S\u1ed0 4: https://goo.gl/LoKJLc \nLINK \u0110K B\u00c0I H\u1eccC S\u1ed0 5 : https://goo.gl/srDDiX\nLINK \u0110K B\u00c0I H\u1eccC S\u1ed0 6: http://gg.gg/b1p1g\nLINK \u0110K B\u00c0I H\u1eccC S\u1ed0 7: https://goo.gl/TZJJPR\nLINK \u0110K B\u00c0I H\u1eccC S\u1ed0 8:https://goo.gl/kn3fgk\nLINK \u0110K B\u00c0I H\u1eccC S\u1ed0 9: https://goo.gl/Rr3bSc\nLINK \u0110K B\u00c0I H\u1eccC S\u1ed0 10: https://goo.gl/forms/txpNQNTyqpnB8Oh53\nLINK \u0110K B\u00c0I H\u1eccC S\u1ed0 11: https://goo.gl/forms/k7v2Fy2gccc1rrw83\nLINK \u0110K B\u00c0I H\u1eccC S\u1ed0 12: https://goo.gl/forms/SPxrlv50ZIHSCF0c2",
	"created_time": "2018-08-11T16:01:54+0000",
	"updated_time": "2018-08-12T04:41:40+0000",
	"id": "1784461175160264_2128948050711573",
	"reactions": {
		"data": [],
		"paging": {
			"cursors": {
				"before": "TVRBd01EQTVOVGd6TlRFeU5ERXpPakUxTXpRd05EZAzJNVEU2TWpVME1EazJNVFl4TXc9PQZDZD",
				"after": "TVRBd01EQTJOakF5TnpZAeE5UWXpPakUxTXpRd016STFORFk2TWpVME1EazJNVFl4TXc9PQZDZD"
			},
			"next": "https://graph.facebook.com/v3.1/1784461175160264_2128948050711573/reactions?access_token=EAAS2fFjpbzABAMwwxGgQczR3g4AlYoq1S3vKqZCgvqKvOUWswTavVtw7jkfPeA02NV9KNMn77ZAtj1t4ZBR1x2LLxUSbbc7J2Kjdw8dGFBMnnkGLRq1Hg4Xjx6PmHDvpsDZAeLpHBGI8rjzIg4iqZBDqWZABWdqhG0S2kQIqVlRAZDZD&summary=true&limit=25&after=TVRBd01EQTJOakF5TnpZAeE5UWXpPakUxTXpRd016STFORFk2TWpVME1EazJNVFl4TXc9PQZDZD"
		},
		"summary": {
			"total_count": 80,
			"viewer_reaction": "NONE"
		}
	},
	"likes": {
		"data": [],
		"paging": {
			"cursors": {
				"before": "MjAwODc3OTI2NjExODE3MQZDZD",
				"after": "MjE4NjM2NjIzODI2MDExNAZDZD"
			},
			"next": "https://graph.facebook.com/v3.1/1784461175160264_2128948050711573/likes?access_token=EAAS2fFjpbzABAMwwxGgQczR3g4AlYoq1S3vKqZCgvqKvOUWswTavVtw7jkfPeA02NV9KNMn77ZAtj1t4ZBR1x2LLxUSbbc7J2Kjdw8dGFBMnnkGLRq1Hg4Xjx6PmHDvpsDZAeLpHBGI8rjzIg4iqZBDqWZABWdqhG0S2kQIqVlRAZDZD&summary=true&limit=25&after=MjE4NjM2NjIzODI2MDExNAZDZD"
		},
		"summary": {
			"total_count": 76,
			"can_like": true,
			"has_liked": false
		}
	},
	"comments": {
		"data": [
			{
				"created_time": "2018-08-11T16:07:05+0000",
				"message": ".",
				"id": "2128952027377842"
			},
			{
				"created_time": "2018-08-11T16:11:00+0000",
				"message": ".",
				"id": "2128957060710672"
			},
			{
				"created_time": "2018-08-11T16:11:25+0000",
				"message": ".",
				"id": "2128957357377309"
			},
			{
				"created_time": "2018-08-11T16:11:59+0000",
				"message": "",
				"id": "2128957694043942"
			},
			{
				"created_time": "2018-08-11T16:33:06+0000",
				"message": ".",
				"id": "2128972994042412"
			},
			{
				"created_time": "2018-08-11T16:37:08+0000",
				"message": ".",
				"id": "2128975844042127"
			},
			{
				"created_time": "2018-08-11T16:46:50+0000",
				"message": ".",
				"id": "2128983547374690"
			},
			{
				"created_time": "2018-08-11T16:46:59+0000",
				"message": ".",
				"id": "2128983667374678"
			},
			{
				"created_time": "2018-08-11T16:47:23+0000",
				"message": "ad gi\u00fap m\u00ecnh v\u1edbi, k bi\u1ebft h\u1ecdc t\u1eeb \u0111\u00e2u. th\u1ea5y c\u00e1c b\u1ea1n n\u00f3i gi\u1ecfi qu\u00e1 tr\u1eddi",
				"id": "2128984024041309"
			},
			{
				"created_time": "2018-08-11T16:51:24+0000",
				"message": ".",
				"id": "2128987170707661"
			},
			{
				"created_time": "2018-08-11T17:17:56+0000",
				"message": ".",
				"id": "2129010937371951"
			},
			{
				"created_time": "2018-08-11T17:52:49+0000",
				"message": ".",
				"id": "2129038590702519"
			},
			{
				"created_time": "2018-08-11T17:54:24+0000",
				"message": ".",
				"id": "2129040097369035"
			},
			{
				"created_time": "2018-08-11T18:04:05+0000",
				"message": ".",
				"id": "2129048910701487"
			},
			{
				"created_time": "2018-08-11T19:21:57+0000",
				"message": ".",
				"id": "2129112687361776"
			},
			{
				"created_time": "2018-08-11T22:22:05+0000",
				"message": ".",
				"id": "2129256334014078"
			},
			{
				"created_time": "2018-08-11T23:06:40+0000",
				"message": ".",
				"id": "2129282967344748"
			},
			{
				"created_time": "2018-08-11T23:33:29+0000",
				"message": "Minh Hi\u1ebfu",
				"id": "2129300577342987"
			},
			{
				"created_time": "2018-08-11T23:46:27+0000",
				"message": ".",
				"id": "2129307797342265"
			},
			{
				"created_time": "2018-08-11T23:54:07+0000",
				"message": ".",
				"id": "2129312517341793"
			},
			{
				"created_time": "2018-08-12T00:09:22+0000",
				"message": ".",
				"id": "2129321494007562"
			},
			{
				"created_time": "2018-08-12T00:14:08+0000",
				"message": ".",
				"id": "2129324384007273"
			},
			{
				"created_time": "2018-08-12T00:35:27+0000",
				"message": "V\u00e0o nh\u00f3m r\u1ed3i h\u1ecdc sao ad.",
				"id": "2129337164005995"
			},
			{
				"created_time": "2018-08-12T00:40:10+0000",
				"message": "Nh\u1eadn b\u00e0i h\u1ecdc 1 r sao n\u1eefa h\u1ea3 ad",
				"id": "2129340710672307"
			},
			{
				"created_time": "2018-08-12T01:17:08+0000",
				"message": ".",
				"id": "2129369224002789"
			}
		],
		"paging": {
			"cursors": {
				"before": "WTI5dGJXVnVkRjlqZAFhKemIzSTZANakV5T0RrMU1qQXlOek0zTnpnME1qb3hOVE0wTURBek5qSTIZD",
				"after": "WTI5dGJXVnVkRjlqZAFhKemIzSTZANakV5T1RNMk9USXlOREF3TWpjNE9Ub3hOVE0wTURNMk5qSTQZD"
			},
			"next": "https://graph.facebook.com/v3.1/1784461175160264_2128948050711573/comments?access_token=EAAS2fFjpbzABAMwwxGgQczR3g4AlYoq1S3vKqZCgvqKvOUWswTavVtw7jkfPeA02NV9KNMn77ZAtj1t4ZBR1x2LLxUSbbc7J2Kjdw8dGFBMnnkGLRq1Hg4Xjx6PmHDvpsDZAeLpHBGI8rjzIg4iqZBDqWZABWdqhG0S2kQIqVlRAZDZD&summary=true&limit=25&after=WTI5dGJXVnVkRjlqZAFhKemIzSTZANakV5T1RNMk9USXlOREF3TWpjNE9Ub3hOVE0wTURNMk5qSTQZD"
		},
		"summary": {
			"order": "chronological",
			"total_count": 40,
			"can_comment": true
		}
	}
}